[gd_scene load_steps=4 format=3 uid="uid://dhp7cbyulrlky"]

[ext_resource type="Texture2D" uid="uid://btljmob0xp4ue" path="res://art/UI/bar_ui.png" id="1_6sgg6"]
[ext_resource type="Script" path="res://scenes/ability_bar.gd" id="1_xkmuo"]
[ext_resource type="PackedScene" uid="uid://du7kyfn0toc6w" path="res://scenes/ability_box.tscn" id="2_e573h"]

[node name="AbilityBar" type="Control"]
layout_mode = 3
anchors_preset = 7
anchor_left = 0.5
anchor_top = 1.0
anchor_right = 0.5
anchor_bottom = 1.0
offset_left = -58.0
offset_top = -38.0
offset_right = 58.0
grow_horizontal = 2
grow_vertical = 0
script = ExtResource("1_xkmuo")

[node name="TextureRect" type="TextureRect" parent="."]
layout_mode = 1
anchors_preset = 15
anchor_right = 1.0
anchor_bottom = 1.0
grow_horizontal = 2
grow_vertical = 2
texture = ExtResource("1_6sgg6")
expand_mode = 1
stretch_mode = 5

[node name="MarginContainer" type="MarginContainer" parent="TextureRect"]
layout_mode = 1
anchors_preset = 15
anchor_right = 1.0
anchor_bottom = 1.0
grow_horizontal = 2
grow_vertical = 2
theme_override_constants/margin_left = 16
theme_override_constants/margin_top = 16
theme_override_constants/margin_right = 16
theme_override_constants/margin_bottom = 16

[node name="AbilityContainer" type="HBoxContainer" parent="TextureRect/MarginContainer"]
unique_name_in_owner = true
layout_mode = 2

[node name="AbilityBox" parent="TextureRect/MarginContainer/AbilityContainer" instance=ExtResource("2_e573h")]
layout_mode = 2

[node name="AbilityBox2" parent="TextureRect/MarginContainer/AbilityContainer" instance=ExtResource("2_e573h")]
layout_mode = 2
