[gd_scene load_steps=6 format=3 uid="uid://fdvt5el3ojtj"]

[ext_resource type="Script" path="res://scenes/player/player.gd" id="1_ge4pa"]
[ext_resource type="Resource" uid="uid://br82w7a5ucg1y" path="res://scenes/player/fireball.tres" id="2_a5rnp"]
[ext_resource type="Texture2D" uid="uid://cppsi6athbep5" path="res://art/new_sprites/tile_0084.png" id="3_xjsng"]
[ext_resource type="Texture2D" uid="uid://d4cyusfgqcvgc" path="res://art/mouse_cursor.png" id="4_0jokp"]

[sub_resource type="RectangleShape2D" id="RectangleShape2D_0nelb"]
size = Vector2(8, 8)

[node name="Player" type="CharacterBody2D" groups=["player"]]
script = ExtResource("1_ge4pa")
max_turns = 4
abilities = Array[Resource("res://scenes/player/player_ability.gd")]([ExtResource("2_a5rnp")])
target_range = 5.0

[node name="Sprite" type="Sprite2D" parent="."]
texture = ExtResource("3_xjsng")
centered = false

[node name="CollisionShape2D" type="CollisionShape2D" parent="."]
light_mask = 0
visibility_layer = 0
position = Vector2(4, 4)
shape = SubResource("RectangleShape2D_0nelb")

[node name="RayCast2D" type="RayCast2D" parent="."]
target_position = Vector2(0, 0)
hit_from_inside = true
collide_with_areas = true

[node name="Selected" type="Sprite2D" parent="."]
texture = ExtResource("4_0jokp")
centered = false
