[gd_resource type="Resource" script_class="CharacterStats" load_steps=3 format=3 uid="uid://cocbuaquy7w75"]

[ext_resource type="Texture2D" uid="uid://bfacxxlla0llr" path="res://art/new_sprites/tile_0112.png" id="1_v4v8m"]
[ext_resource type="Script" path="res://resources/character_stats.gd" id="2_6da2d"]

[resource]
script = ExtResource("2_6da2d")
name = "Rogue"
description = "Sneaky and stealthy"
portrait = ExtResource("1_v4v8m")
max_health = 20
