[gd_scene load_steps=2 format=3 uid="uid://0aaxcryrj2qt"]

[ext_resource type="Script" path="res://scenes/pause_menu/pause_menu.gd" id="1_q7k5a"]

[node name="PauseMenu" type="Control"]
process_mode = 3
layout_mode = 3
anchors_preset = 0
offset_right = 40.0
offset_bottom = 40.0
mouse_filter = 2
script = ExtResource("1_q7k5a")

[node name="ButtonContainer" type="VBoxContainer" parent="."]
layout_mode = 1
anchors_preset = 8
anchor_left = 0.5
anchor_top = 0.5
anchor_right = 0.5
anchor_bottom = 0.5
offset_left = 486.0
offset_top = 284.0
offset_right = 626.0
offset_bottom = 324.0
grow_horizontal = 2
grow_vertical = 2
mouse_filter = 2

[node name="ReturnButton" type="Button" parent="ButtonContainer"]
custom_minimum_size = Vector2(140, 20)
layout_mode = 2
text = "Return"

[node name="QuitButton" type="Button" parent="ButtonContainer"]
custom_minimum_size = Vector2(140, 20)
layout_mode = 2
text = "Quit"

[connection signal="pressed" from="ButtonContainer/ReturnButton" to="." method="_on_return_button_pressed"]
[connection signal="pressed" from="ButtonContainer/QuitButton" to="." method="_on_quit_button_pressed"]
