[gd_scene load_steps=4 format=3 uid="uid://c5qlxat78vbss"]

[ext_resource type="Script" path="res://components/resource/hunger_bar.gd" id="1_ib7on"]

[sub_resource type="StyleBoxFlat" id="StyleBoxFlat_t7eqg"]

[sub_resource type="StyleBoxFlat" id="StyleBoxFlat_3pgj0"]
bg_color = Color(0.32549, 0.694118, 0.364706, 1)

[node name="HungerBarComponent" type="ProgressBar"]
offset_right = 156.0
offset_bottom = 27.0
theme_override_styles/background = SubResource("StyleBoxFlat_t7eqg")
theme_override_styles/fill = SubResource("StyleBoxFlat_3pgj0")
value = 50.0
show_percentage = false
script = ExtResource("1_ib7on")
