[gd_scene load_steps=4 format=3 uid="uid://b66ncuakf5odt"]

[ext_resource type="Script" path="res://scenes/enemy/axe_item.gd" id="1_youbq"]
[ext_resource type="Texture2D" uid="uid://d2v4b6dqo5myr" path="res://art/icons/axe.png" id="2_d5sy6"]

[sub_resource type="RectangleShape2D" id="RectangleShape2D_vy6uo"]
size = Vector2(16, 16)

[node name="Axe" type="Area2D" groups=["enemy"]]
script = ExtResource("1_youbq")
item_name = "sword"

[node name="CollisionShape2D" type="CollisionShape2D" parent="."]
position = Vector2(8, 8)
shape = SubResource("RectangleShape2D_vy6uo")

[node name="Sprite2D" type="Sprite2D" parent="."]
texture = ExtResource("2_d5sy6")
centered = false

[connection signal="input_event" from="." to="." method="_on_input_event"]
