[gd_scene load_steps=2 format=3 uid="uid://cli657ncx0fhp"]

[ext_resource type="Script" path="res://components/inventory/inventory_component.gd" id="1_r75w5"]

[node name="InventoryComponent" type="Node"]
script = ExtResource("1_r75w5")
