[gd_resource type="Resource" load_steps=2 format=3 uid="uid://clok6movimq1m"]

[ext_resource type="Script" path="res://components/interaction/Actions/attack_action.gd" id="1_y613e"]

[resource]
script = ExtResource("1_y613e")
